{
  "project_info": {
    "project_number": "968499351406",
    "firebase_url": "https://userlist-402ff.firebaseio.com",
    "project_id": "userlist-402ff",
    "storage_bucket": "userlist-402ff.appspot.com"
  },
  "client": [
    {
      "client_info": {
        "mobilesdk_app_id": "1:968499351406:android:eacf6e00c3f6cae7997b7f",
        "android_client_info": {
          "package_name": "com.example.userlist"
        }
      },
      "oauth_client": [
        {
          "client_id": "968499351406-mg4vlog6r5k5c8v3crt0h7801g1phhjf.apps.googleusercontent.com",
          "client_type": 1,
          "android_info": {
            "package_name": "com.example.userlist",
            "certificate_hash": "c09f337b4fcdbf7808823cac8e74b6b1a4407998"
          }
        },
        {
          "client_id": "968499351406-cgs4hjj8euafjbtd1jmilih2472s26ri.apps.googleusercontent.com",
          "client_type": 3
        }
      ],
      "api_key": [
        {
          "current_key": "AIzaSyBoPzOwJVxTJRWoETPQtGPf5irTAU6TAHA"
        }
      ],
      "services": {
        "appinvite_service": {
          "other_platform_oauth_client": [
            {
              "client_id": "968499351406-cgs4hjj8euafjbtd1jmilih2472s26ri.apps.googleusercontent.com",
              "client_type": 3
            }
          ]
        }
      }
    }
  ],
  "configuration_version": "1"
}